resources/dide-viewer/view/cpu.vcd
$date
	Mon Jan  4 17:57:07 2021
$end
$version
	Icarus Verilog
$end
$timescale
	1s
$end
$scope module ID_EX $end
$var wire 2 ! AluOp [1:0] $end
$var wire 1 " AluSrc $end
$var wire 1 # MemRead $end
$var wire 1 $ MemWrite $end
$var wire 1 % MemtoReg $end
$var wire 1 & RegWrite $end
$var wire 1 ' clk_i $end
$var wire 3 ( func3 [2:0] $end
$var wire 7 ) func7 [6:0] $end
$var wire 32 * imm_o [31:0] $end
$var wire 32 + rd_addr [31:0] $end
$var wire 32 , rs1_addr [31:0] $end
$var wire 32 - rs1_data [31:0] $end
$var wire 32 . rs2_addr [31:0] $end
$var wire 32 / rs2_data [31:0] $end
$var reg 2 0 ID_EX_AluOp [1:0] $end
$var reg 1 1 ID_EX_AluSrc $end
$var reg 32 2 ID_EX_IMM [31:0] $end
$var reg 1 3 ID_EX_MemRead $end
$var reg 1 4 ID_EX_MemWrite $end
$var reg 1 5 ID_EX_MemtoReg $end
$var reg 5 6 ID_EX_RD [4:0] $end
$var reg 5 7 ID_EX_RS1 [4:0] $end
$var reg 32 8 ID_EX_RS1data [31:0] $end
$var reg 5 9 ID_EX_RS2 [4:0] $end
$var reg 32 : ID_EX_RS2data [31:0] $end
$var reg 1 ; ID_EX_RegWrite $end
$var reg 3 < ID_EX_func3 [2:0] $end
$var reg 7 = ID_EX_func7 [6:0] $end
$upscope $end
$scope module testbench $end
$var wire 256 > mem_cpu_data [255:0] $end
$var wire 1 ? mem_cpu_ack $end
$var wire 1 @ cpu_mem_write $end
$var wire 1 A cpu_mem_enable $end
$var wire 256 B cpu_mem_data [255:0] $end
$var wire 32 C cpu_mem_addr [31:0] $end
$var reg 1 D Clk $end
$var reg 1 E Reset $end
$var reg 1 F Start $end
$var reg 27 G address [26:0] $end
$var reg 1 H flag $end
$var reg 4 I index [3:0] $end
$var reg 25 J tag [24:0] $end
$var integer 32 K counter [31:0] $end
$var integer 32 L i [31:0] $end
$var integer 32 M j [31:0] $end
$var integer 32 N outfile [31:0] $end
$var integer 32 O outfile2 [31:0] $end
$scope module CPU $end
$var wire 1 D clk_i $end
$var wire 1 E rst_i $end
$var wire 1 F start_i $end
$var wire 32 P wb_data [31:0] $end
$var wire 32 Q rs2_data [31:0] $end
$var wire 2 R rs2_ctrl [1:0] $end
$var wire 5 S rs2_addr [4:0] $end
$var wire 32 T rs1_data [31:0] $end
$var wire 2 U rs1_ctrl [1:0] $end
$var wire 5 V rs1_addr [4:0] $end
$var wire 5 W rd_addr [4:0] $end
$var wire 32 X pc_o [31:0] $end
$var wire 32 Y pc_i [31:0] $end
$var wire 32 Z pc_add4 [31:0] $end
$var wire 7 [ opcode [6:0] $end
$var wire 32 \ mux_o [31:0] $end
$var wire 1 @ mem_write_o $end
$var wire 1 A mem_enable_o $end
$var wire 256 ] mem_data_o [255:0] $end
$var wire 256 ^ mem_data_i [255:0] $end
$var wire 32 _ mem_addr_o [31:0] $end
$var wire 1 ? mem_ack_i $end
$var wire 32 ` instr [31:0] $end
$var wire 32 a imm_o [31:0] $end
$var wire 12 b imm_i [11:0] $end
$var wire 7 c func7 [6:0] $end
$var wire 3 d func3 [2:0] $end
$var wire 1 e cpu_stall_o $end
$var wire 1 f Stall $end
$var wire 1 g RegWrite $end
$var wire 1 h PcWrite $end
$var wire 32 i PC_Branch [31:0] $end
$var wire 1 j NoOp $end
$var wire 1 k MemtoReg $end
$var wire 1 l MemWrite $end
$var wire 1 m MemRead $end
$var wire 32 n MemData_o [31:0] $end
$var wire 32 o IF_ID_PC [31:0] $end
$var wire 32 p IF_ID_IR [31:0] $end
$var wire 1 q Flush $end
$var wire 1 r Branch $end
$var wire 1 s AluSrc $end
$var wire 2 t AluOp [1:0] $end
$var wire 3 u AluControl_o [2:0] $end
$var wire 32 v ALU_o [31:0] $end
$var wire 32 w ALU_RS2 [31:0] $end
$var wire 32 x ALU_RS1 [31:0] $end
$var reg 32 y EX_MEM_ALUout [31:0] $end
$var reg 1 z EX_MEM_MemRead $end
$var reg 1 { EX_MEM_MemWrite $end
$var reg 1 | EX_MEM_MemtoReg $end
$var reg 5 } EX_MEM_RD [4:0] $end
$var reg 1 ~ EX_MEM_RegWrite $end
$var reg 32 !" EX_MEM_WriteData [31:0] $end
$var reg 2 "" ID_EX_AluOp [1:0] $end
$var reg 1 #" ID_EX_AluSrc $end
$var reg 32 $" ID_EX_IMM [31:0] $end
$var reg 1 %" ID_EX_MemRead $end
$var reg 1 &" ID_EX_MemWrite $end
$var reg 1 '" ID_EX_MemtoReg $end
$var reg 5 (" ID_EX_RD [4:0] $end
$var reg 5 )" ID_EX_RS1 [4:0] $end
$var reg 32 *" ID_EX_RS1data [31:0] $end
$var reg 5 +" ID_EX_RS2 [4:0] $end
$var reg 32 ," ID_EX_RS2data [31:0] $end
$var reg 1 -" ID_EX_RegWrite $end
$var reg 3 ." ID_EX_func3 [2:0] $end
$var reg 7 /" ID_EX_func7 [6:0] $end
$var reg 32 0" MEM_WB_ALUout [31:0] $end
$var reg 32 1" MEM_WB_MEMout [31:0] $end
$var reg 1 2" MEM_WB_MemtoReg $end
$var reg 5 3" MEM_WB_RD [4:0] $end
$var reg 1 4" MEM_WB_RegWrite $end
$scope module ALU $end
$var wire 32 5" rs1_data [31:0] $end
$var wire 32 6" mux_o [31:0] $end
$var wire 3 7" AluControl [2:0] $end
$var reg 32 8" ALU_o [31:0] $end
$upscope $end
$scope module ALU_Control $end
$var wire 2 9" AluOp [1:0] $end
$var wire 3 :" func3 [2:0] $end
$var wire 7 ;" func7 [6:0] $end
$var reg 3 <" AluControl_o [2:0] $end
$upscope $end
$scope module ALU_Src_Mux $end
$var wire 1 #" ctrl_signal $end
$var wire 32 =" input1 [31:0] $end
$var wire 32 >" out [31:0] $end
$var wire 32 ?" input0 [31:0] $end
$upscope $end
$scope module Add4 $end
$var wire 32 @" pc_o [31:0] $end
$var wire 32 A" pc_i [31:0] $end
$upscope $end
$scope module Adder $end
$var wire 32 B" PC_Branch [31:0] $end
$var wire 32 C" IF_ID_PC [31:0] $end
$var wire 32 D" IF_ID_Imm [31:0] $end
$upscope $end
$scope module Control $end
$var wire 7 E" opcode [6:0] $end
$var wire 1 g RegWrite $end
$var wire 1 j NoOp $end
$var wire 1 k MemtoReg $end
$var wire 1 l MemWrite $end
$var wire 1 m MemRead $end
$var wire 1 r Branch $end
$var wire 1 s AluSrc $end
$var wire 2 F" AluOp [1:0] $end
$upscope $end
$scope module Forwarding_Unit $end
$var wire 5 G" EX_MEM_RD [4:0] $end
$var wire 1 ~ EX_MEM_RegWrite $end
$var wire 5 H" ID_EX_RS1 [4:0] $end
$var wire 5 I" ID_EX_RS2 [4:0] $end
$var wire 5 J" MEM_WB_RD [4:0] $end
$var wire 1 4" MEM_WB_RegWrite $end
$var wire 2 K" Forward_Control2 [1:0] $end
$var wire 2 L" Forward_Control1 [1:0] $end
$upscope $end
$scope module Hazard_Detection $end
$var wire 1 %" ID_EX_MemRead $end
$var wire 5 M" ID_EX_RD [4:0] $end
$var wire 5 N" rs1_addr [4:0] $end
$var wire 5 O" rs2_addr [4:0] $end
$var wire 1 f Stall_o $end
$var wire 1 h PcWrite_o $end
$var wire 1 j NoOp_o $end
$upscope $end
$scope module IF_ID $end
$var wire 1 q Flush $end
$var wire 1 f Stall $end
$var wire 1 D clk_i $end
$var wire 32 P" pc_o [31:0] $end
$var wire 32 Q" instr [31:0] $end
$var wire 1 e cpu_stall_o $end
$var reg 32 R" IF_ID_IR [31:0] $end
$var reg 32 S" IF_ID_PC [31:0] $end
$upscope $end
$scope module Instruction_Memory $end
$var wire 32 T" instr_o [31:0] $end
$var wire 32 U" addr_i [31:0] $end
$upscope $end
$scope module PC $end
$var wire 1 h PCWrite_i $end
$var wire 1 D clk_i $end
$var wire 1 E rst_i $end
$var wire 1 F start_i $end
$var wire 1 e stall_i $end
$var wire 32 V" pc_i [31:0] $end
$var reg 32 W" pc_o [31:0] $end
$upscope $end
$scope module PC_Mux $end
$var wire 1 q ctrl_signal $end
$var wire 32 X" input0 [31:0] $end
$var wire 32 Y" input1 [31:0] $end
$var wire 32 Z" out [31:0] $end
$upscope $end
$scope module RS1_Forwarding $end
$var wire 32 [" EX_MEM_ALUout [31:0] $end
$var wire 32 \" ID_EX_RS [31:0] $end
$var wire 2 ]" ctrl [1:0] $end
$var wire 32 ^" forword_out [31:0] $end
$var wire 32 _" WB_WBdata [31:0] $end
$upscope $end
$scope module RS2_Forwarding $end
$var wire 32 `" EX_MEM_ALUout [31:0] $end
$var wire 32 a" ID_EX_RS [31:0] $end
$var wire 2 b" ctrl [1:0] $end
$var wire 32 c" forword_out [31:0] $end
$var wire 32 d" WB_WBdata [31:0] $end
$upscope $end
$scope module Registers $end
$var wire 5 e" RDaddr_i [4:0] $end
$var wire 5 f" RS1addr_i [4:0] $end
$var wire 5 g" RS2addr_i [4:0] $end
$var wire 1 4" RegWrite_i $end
$var wire 1 D clk_i $end
$var wire 32 h" RS2data_o [31:0] $end
$var wire 32 i" RS1data_o [31:0] $end
$var wire 32 j" RDdata_i [31:0] $end
$upscope $end
$scope module Sign_Extend $end
$var wire 12 k" imm_i [11:0] $end
$var wire 32 l" imm_o [31:0] $end
$upscope $end
$scope module WB_Mux $end
$var wire 1 2" ctrl_signal $end
$var wire 32 m" input0 [31:0] $end
$var wire 32 n" input1 [31:0] $end
$var wire 32 o" out [31:0] $end
$upscope $end
$scope module dcache $end
$var wire 1 p" cache_dirty $end
$var wire 1 q" cache_sram_enable $end
$var wire 4 r" cache_sram_index [3:0] $end
$var wire 1 s" cache_sram_write $end
$var wire 1 D clk_i $end
$var wire 1 z cpu_MemRead_i $end
$var wire 1 { cpu_MemWrite_i $end
$var wire 32 t" cpu_addr_i [31:0] $end
$var wire 32 u" cpu_data_i [31:0] $end
$var wire 32 v" cpu_data_o [31:0] $end
$var wire 1 w" cpu_req $end
$var wire 1 e cpu_stall_o $end
$var wire 256 x" mem_data_o [255:0] $end
$var wire 1 A mem_enable_o $end
$var wire 1 @ mem_write_o $end
$var wire 256 y" r_hit_data [255:0] $end
$var wire 1 E rst_i $end
$var wire 1 z" write_hit $end
$var wire 1 {" sram_valid $end
$var wire 22 |" sram_tag [21:0] $end
$var wire 1 }" sram_dirty $end
$var wire 25 ~" sram_cache_tag [24:0] $end
$var wire 256 !# sram_cache_data [255:0] $end
$var wire 256 "# mem_data_i [255:0] $end
$var wire 32 ## mem_addr_o [31:0] $end
$var wire 1 ? mem_ack_i $end
$var wire 1 $# hit $end
$var wire 23 %# cpu_tag [22:0] $end
$var wire 5 &# cpu_offset [4:0] $end
$var wire 4 '# cpu_index [3:0] $end
$var wire 25 (# cache_sram_tag [24:0] $end
$var wire 256 )# cache_sram_data [255:0] $end
$var reg 1 *# cache_write $end
$var reg 32 +# cpu_data [31:0] $end
$var reg 1 ,# mem_enable $end
$var reg 1 -# mem_write $end
$var reg 3 .# state [2:0] $end
$var reg 256 /# w_hit_data [255:0] $end
$var reg 1 0# write_back $end
$scope module dcache_sram $end
$var wire 4 1# addr_i [3:0] $end
$var wire 1 D clk_i $end
$var wire 256 2# data_i [255:0] $end
$var wire 1 q" enable_i $end
$var wire 1 E rst_i $end
$var wire 25 3# tag_i [24:0] $end
$var wire 1 s" write_i $end
$var wire 25 4# tag_o [24:0] $end
$var wire 1 $# hit_o $end
$var wire 256 5# data_o [255:0] $end
$var wire 2 6# ctrl [1:0] $end
$var integer 32 7# i [31:0] $end
$var integer 32 8# j [31:0] $end
$scope module Hit $end
$var wire 25 9# cpu_tag [24:0] $end
$var wire 25 :# sram_tag1 [24:0] $end
$var wire 25 ;# sram_tag2 [24:0] $end
$var wire 2 <# ctrl [1:0] $end
$upscope $end
$upscope $end
$upscope $end
$upscope $end
$scope module Data_Memory $end
$var wire 1 ? ack_o $end
$var wire 32 =# addr_i [31:0] $end
$var wire 1 D clk_i $end
$var wire 256 ># data_i [255:0] $end
$var wire 256 ?# data_o [255:0] $end
$var wire 1 A enable_i $end
$var wire 1 E rst_i $end
$var wire 1 @ write_i $end
$var wire 27 @# addr [26:0] $end
$var reg 4 A# count [3:0] $end
$var reg 256 B# data [255:0] $end
$var reg 2 C# state [1:0] $end
$upscope $end
$upscope $end
$enddefinitions $end
#0
$dumpvars
b0 C#
bx B#
b0 A#
bx @#
bx ?#
bx >#
bx00000 =#
bx <#
bx ;#
bx :#
b1xxxxxxxxxxxxxxxxxxxxxxxx 9#
b10 8#
b10000 7#
bx 6#
bx 5#
bx 4#
b1xxxxxxxxxxxxxxxxxxxxxxxx 3#
bx 2#
bx 1#
00#
bx /#
b0 .#
0-#
0,#
bx +#
0*#
bx )#
b1xxxxxxxxxxxxxxxxxxxxxxxx (#
bx '#
bx &#
bx %#
x$#
bx00000 ##
bx "#
bx !#
bx ~"
x}"
bx |"
x{"
xz"
bx y"
bx x"
xw"
bx v"
bx u"
bx t"
xs"
bx r"
xq"
xp"
bx o"
bx n"
bx m"
bx l"
bx k"
bx j"
bx i"
bx h"
bx g"
bx f"
bx e"
bx d"
bx c"
b0 b"
bx a"
bx `"
bx _"
bx ^"
b0 ]"
bx \"
bx ["
bx Z"
bx Y"
b100 X"
b0 W"
bx V"
b0 U"
bx T"
bx S"
bx R"
bx Q"
b0 P"
bx O"
bx N"
bx M"
b0 L"
b0 K"
bx J"
bx I"
bx H"
bx G"
bx F"
bx E"
bx D"
bx C"
bx B"
b0 A"
b100 @"
bx ?"
bx >"
bx ="
bx <"
bx ;"
bx :"
bx 9"
bx 8"
bx 7"
bx 6"
bx 5"
x4"
bx 3"
x2"
bx 1"
bx 0"
bx /"
bx ."
x-"
bx ,"
bx +"
bx *"
bx )"
bx ("
x'"
x&"
x%"
bx $"
x#"
bx ""
bx !"
x~
bx }
x|
x{
xz
bx y
bx x
bx w
bx v
bx u
bx t
xs
xr
xq
bx p
bx o
bx n
xm
xl
xk
xj
bx i
xh
xg
xf
xe
bx d
bx c
bx b
bx a
bx `
bx00000 _
bx ^
bx ]
bx \
bx [
b100 Z
bx Y
b0 X
bx W
bx V
b0 U
bx T
bx S
b0 R
bx Q
bx P
bx O
bx N
bx M
bx L
b0 K
bx J
bx I
xH
bx G
0F
1E
0D
bx00000 C
bx B
0A
0@
0?
bx >
bx =
bx <
x;
bx :
bx 9
bx 8
bx 7
bx 6
x5
x4
x3
bx 2
x1
bx 0
bz /
bz .
bz -
bz ,
bz +
bz *
bz )
bz (
z'
z&
z%
z$
z#
z"
bz !
$end
#12
b0 n
b0 v"
b0 +#
b100 Y
b100 V"
b100 Z"
b0 |"
b0 i
b0 B"
b0 Y"
0q
0}"
0{"
0$#
0g
b0 y"
b0 B
b0 ]
b0 x"
b0 >#
b0 !#
b0 5#
b0 ~"
b0 4#
b0 a
b0 D"
b0 l"
b0 b
b0 k"
b0 @#
b10 6#
b10 <#
1s
0r
0m
0l
0k
b0 t
b0 F"
b0 Q
b0 h"
0s"
0e
b0 C
b0 _
b0 ##
b0 =#
1h
0f
0j
b0 v
b0 8"
b0 S
b0 O"
b0 g"
b0 T
b0 i"
b0 W
b0 P
b0 _"
b0 d"
b0 j"
b0 o"
0p"
0z"
0q"
0w"
b0 /#
b1000000000000000000000000 (#
b1000000000000000000000000 3#
b1000000000000000000000000 9#
b0 %#
b0 :#
b0 ;#
b0 r"
b0 1#
b0 '#
b0 &#
b0 u
b0 7"
b0 <"
b0 \
b0 6"
b0 >"
b0 w
b0 ?"
b0 c"
b0 x
b0 5"
b0 ^"
b0 c
b0 V
b0 N"
b0 f"
b0 d
b100 [
b100 E"
02"
04"
b0 3"
b0 J"
b0 e"
b0 0"
b0 m"
b0 1"
b0 n"
0{
0z
0|
0~
b0 }
b0 G"
b0 !"
b0 u"
b0 y
b0 ["
b0 `"
b0 t"
0&"
0%"
0'"
0-"
0#"
b0 ""
b0 9"
b0 ."
b0 :"
b0 /"
b0 ;"
b0 $"
b0 ="
b0 ,"
b0 a"
b0 *"
b0 \"
b0 +"
b0 I"
b0 )"
b0 H"
b0 ("
b0 M"
b0 o
b0 C"
b0 S"
b100 p
b100 R"
b101 O
b11 N
b10 M
b10010000000011 `
b10010000000011 Q"
b10010000000011 T"
b1000000000 L
1F
0E
#25
1g
1m
1k
b1000 W
b10 d
b11 [
b11 E"
b10000000010010010000011 `
b10000000010010010000011 Q"
b10000000010010010000011 T"
b1000 Y
b1000 V"
b1000 Z"
b10010000000011 p
b10010000000011 R"
1#"
b1000 Z
b1000 @"
b1000 X"
b100 X
b100 A"
b100 P"
b100 U"
b100 W"
b1 K
0H
1D
#50
0D
#75
1s
1g
1k
1m
1h
0f
0j
b100 a
b100 D"
b100 l"
b100 b
b100 k"
b1001 W
b100000000010010100000011 `
b100000000010010100000011 Q"
b100000000010010100000011 T"
b1100 Y
b1100 V"
b1100 Z"
1%"
1'"
1-"
b10 ."
b10 :"
b1000 ("
b1000 M"
b1100 i
b1100 B"
b1100 Y"
b100 o
b100 C"
b100 S"
b10000000010010010000011 p
b10000000010010010000011 R"
b1100 Z
b1100 @"
b1100 X"
b1000 X
b1000 A"
b1000 P"
b1000 U"
b1000 W"
b10 K
1D
#100
0D
#125
b1000 a
b1000 D"
b1000 l"
b1000 b
b1000 k"
b1010 W
b100 v
b100 8"
1e
b100 \
b100 6"
b100 >"
1q"
1w"
b110000000010010110000011 `
b110000000010010110000011 Q"
b110000000010010110000011 T"
b10000 Y
b10000 V"
b10000 Z"
b11000 i
b11000 B"
b11000 Y"
b1000 o
b1000 C"
b1000 S"
b100000000010010100000011 p
b100000000010010100000011 R"
b100 $"
b100 ="
b1001 ("
b1001 M"
1z
1|
1~
b1000 }
b1000 G"
b10000 Z
b10000 @"
b10000 X"
b1100 X
b1100 A"
b1100 P"
b1100 U"
b1100 W"
b11 K
1D
#150
0D
#175
b100 .#
b100 K
1H
1D
#200
0D
#225
b1 .#
1A
1,#
b101 K
1D
#250
0D
#275
b1 A#
b1 C#
b110 K
1D
#300
0D
#325
b10 A#
b111 K
1D
#350
0D
#375
b11 A#
b1000 K
1D
#400
0D
#425
b100 A#
b1001 K
1D
#450
0D
#475
b101 A#
b1010 K
1D
#500
0D
#525
b110 A#
b1011 K
1D
#550
0D
#575
b111 A#
b1100 K
1D
#600
0D
#625
b1000 A#
b1101 K
1D
#650
0D
#675
1?
b1001 A#
b1110 K
1D
#700
0D
#725
0?
1s"
b0 A#
b0 C#
b10 .#
0A
0,#
1*#
b100010001000100100010001000100011001100110011010001000100010001010101010101010110011001100110011101110111011110001000100010001001100110011001101010101010101010111011101110111100110011001100110111011101110111101110111011101111111111111111 )#
b100010001000100100010001000100011001100110011010001000100010001010101010101010110011001100110011101110111011110001000100010001001100110011001101010101010101010111011101110111100110011001100110111011101110111101110111011101111111111111111 2#
b100010001000100100010001000100011001100110011010001000100010001010101010101010110011001100110011101110111011110001000100010001001100110011001101010101010101010111011101110111100110011001100110111011101110111101110111011101111111111111111 >
b100010001000100100010001000100011001100110011010001000100010001010101010101010110011001100110011101110111011110001000100010001001100110011001101010101010101010111011101110111100110011001100110111011101110111101110111011101111111111111111 ^
b100010001000100100010001000100011001100110011010001000100010001010101010101010110011001100110011101110111011110001000100010001001100110011001101010101010101010111011101110111100110011001100110111011101110111101110111011101111111111111111 "#
b100010001000100100010001000100011001100110011010001000100010001010101010101010110011001100110011101110111011110001000100010001001100110011001101010101010101010111011101110111100110011001100110111011101110111101110111011101111111111111111 ?#
b100010001000100100010001000100011001100110011010001000100010001010101010101010110011001100110011101110111011110001000100010001001100110011001101010101010101010111011101110111100110011001100110111011101110111101110111011101111111111111111 B#
b1111 K
1D
#750
0D
#775
b11101110111011101111111111111111 n
b11101110111011101111111111111111 v"
b11101110111011101111111111111111 +#
0e
b100010001000100100010001000100011001100110011010001000100010001010101010101010110011001100110011101110111011110001000100010001001100110011001101010101010101010111011101110111100110011001100110111011101110100000000000000000000000000000000 )#
b100010001000100100010001000100011001100110011010001000100010001010101010101010110011001100110011101110111011110001000100010001001100110011001101010101010101010111011101110111100110011001100110111011101110100000000000000000000000000000000 2#
1$#
b0 6#
b0 <#
b100010001000100100010001000100011001100110011010001000100010001010101010101010110011001100110011101110111011110001000100010001001100110011001101010101010101010111011101110111100110011001100110111011101110100000000000000000000000000000000 /#
1{"
b100010001000100100010001000100011001100110011010001000100010001010101010101010110011001100110011101110111011110001000100010001001100110011001101010101010101010111011101110111100110011001100110111011101110111101110111011101111111111111111 y"
b100010001000100100010001000100011001100110011010001000100010001010101010101010110011001100110011101110111011110001000100010001001100110011001101010101010101010111011101110111100110011001100110111011101110111101110111011101111111111111111 B
b100010001000100100010001000100011001100110011010001000100010001010101010101010110011001100110011101110111011110001000100010001001100110011001101010101010101010111011101110111100110011001100110111011101110111101110111011101111111111111111 ]
b100010001000100100010001000100011001100110011010001000100010001010101010101010110011001100110011101110111011110001000100010001001100110011001101010101010101010111011101110111100110011001100110111011101110111101110111011101111111111111111 x"
b100010001000100100010001000100011001100110011010001000100010001010101010101010110011001100110011101110111011110001000100010001001100110011001101010101010101010111011101110111100110011001100110111011101110111101110111011101111111111111111 >#
b100010001000100100010001000100011001100110011010001000100010001010101010101010110011001100110011101110111011110001000100010001001100110011001101010101010101010111011101110111100110011001100110111011101110111101110111011101111111111111111 !#
b100010001000100100010001000100011001100110011010001000100010001010101010101010110011001100110011101110111011110001000100010001001100110011001101010101010101010111011101110111100110011001100110111011101110111101110111011101111111111111111 5#
b1000000000000000000000000 ~"
b1000000000000000000000000 4#
0s"
b1000000000000000000000000 :#
b0 .#
0*#
b10000 K
1D
#800
0D
#825
b11001100110011001101110111011101 n
b11001100110011001101110111011101 v"
b11001100110011001101110111011101 +#
b100010001000100100010001000100011001100110011010001000100010001010101010101010110011001100110011101110111011110001000100010001001100110011001101010101010101010111011101110110000000000000000000000000000000011101110111011101111111111111111 )#
b100010001000100100010001000100011001100110011010001000100010001010101010101010110011001100110011101110111011110001000100010001001100110011001101010101010101010111011101110110000000000000000000000000000000011101110111011101111111111111111 2#
b1100 a
b1100 D"
b1100 l"
b1100 b
b1100 k"
b1011 W
b1000 v
b1000 8"
b100010001000100100010001000100011001100110011010001000100010001010101010101010110011001100110011101110111011110001000100010001001100110011001101010101010101010111011101110110000000000000000000000000000000011101110111011101111111111111111 /#
b1000 \
b1000 6"
b1000 >"
b100 &#
b11101110111011101111111111111111 P
b11101110111011101111111111111111 _"
b11101110111011101111111111111111 d"
b11101110111011101111111111111111 j"
b11101110111011101111111111111111 o"
b1000000000010011000000011 `
b1000000000010011000000011 Q"
b1000000000010011000000011 T"
b10100 Y
b10100 V"
b10100 Z"
b100100 i
b100100 B"
b100100 Y"
b1100 o
b1100 C"
b1100 S"
b110000000010010110000011 p
b110000000010010110000011 R"
b1000 $"
b1000 ="
b1010 ("
b1010 M"
b1001 }
b1001 G"
b100 y
b100 ["
b100 `"
b100 t"
12"
14"
b1000 3"
b1000 J"
b1000 e"
b11101110111011101111111111111111 1"
b11101110111011101111111111111111 n"
b10100 Z
b10100 @"
b10100 X"
b10000 X
b10000 A"
b10000 P"
b10000 U"
b10000 W"
b10001 K
0H
1D
#850
0D
#875
b10101010101010101011101110111011 n
b10101010101010101011101110111011 v"
b10101010101010101011101110111011 +#
b100010001000100100010001000100011001100110011010001000100010001010101010101010110011001100110011101110111011110001000100010001001100110011001000000000000000000000000000000001100110011001100110111011101110111101110111011101111111111111111 )#
b100010001000100100010001000100011001100110011010001000100010001010101010101010110011001100110011101110111011110001000100010001001100110011001000000000000000000000000000000001100110011001100110111011101110111101110111011101111111111111111 2#
b100010001000100100010001000100011001100110011010001000100010001010101010101010110011001100110011101110111011110001000100010001001100110011001000000000000000000000000000000001100110011001100110111011101110111101110111011101111111111111111 /#
b1100 v
b1100 8"
b10000 a
b10000 D"
b10000 l"
b10000 b
b10000 k"
b1100 W
b11001100110011001101110111011101 P
b11001100110011001101110111011101 _"
b11001100110011001101110111011101 d"
b11001100110011001101110111011101 j"
b11001100110011001101110111011101 o"
b1000 &#
b1100 \
b1100 6"
b1100 >"
b1010000000010011010000011 `
b1010000000010011010000011 Q"
b1010000000010011010000011 T"
b11000 Y
b11000 V"
b11000 Z"
b1001 3"
b1001 J"
b1001 e"
b100 0"
b100 m"
b11001100110011001101110111011101 1"
b11001100110011001101110111011101 n"
b1010 }
b1010 G"
b1000 y
b1000 ["
b1000 `"
b1000 t"
b1100 $"
b1100 ="
b1011 ("
b1011 M"
b110000 i
b110000 B"
b110000 Y"
b10000 o
b10000 C"
b10000 S"
b1000000000010011000000011 p
b1000000000010011000000011 R"
b11000 Z
b11000 @"
b11000 X"
b10100 X
b10100 A"
b10100 P"
b10100 U"
b10100 W"
b10010 K
1D
#900
0D
#925
b10001000100010001001100110011001 n
b10001000100010001001100110011001 v"
b10001000100010001001100110011001 +#
b100010001000100100010001000100011001100110011010001000100010001010101010101010110011001100110011101110111011100000000000000000000000000000000101010101010101010111011101110111100110011001100110111011101110111101110111011101111111111111111 )#
b100010001000100100010001000100011001100110011010001000100010001010101010101010110011001100110011101110111011100000000000000000000000000000000101010101010101010111011101110111100110011001100110111011101110111101110111011101111111111111111 2#
b10100 a
b10100 D"
b10100 l"
b10100 b
b10100 k"
b1101 W
b10000 v
b10000 8"
b100010001000100100010001000100011001100110011010001000100010001010101010101010110011001100110011101110111011100000000000000000000000000000000101010101010101010111011101110111100110011001100110111011101110111101110111011101111111111111111 /#
b10000 \
b10000 6"
b10000 >"
b1100 &#
b10101010101010101011101110111011 P
b10101010101010101011101110111011 _"
b10101010101010101011101110111011 d"
b10101010101010101011101110111011 j"
b10101010101010101011101110111011 o"
b1100000000010011100000011 `
b1100000000010011100000011 Q"
b1100000000010011100000011 T"
b11100 Y
b11100 V"
b11100 Z"
b111100 i
b111100 B"
b111100 Y"
b10100 o
b10100 C"
b10100 S"
b1010000000010011010000011 p
b1010000000010011010000011 R"
b10000 $"
b10000 ="
b1100 ("
b1100 M"
b1011 }
b1011 G"
b1100 y
b1100 ["
b1100 `"
b1100 t"
b1010 3"
b1010 J"
b1010 e"
b1000 0"
b1000 m"
b10101010101010101011101110111011 1"
b10101010101010101011101110111011 n"
b11100 Z
b11100 @"
b11100 X"
b11000 X
b11000 A"
b11000 P"
b11000 U"
b11000 W"
b10011 K
1D
#950
0D
#975
b1100110011001100111011101110111 n
b1100110011001100111011101110111 v"
b1100110011001100111011101110111 +#
b100010001000100100010001000100011001100110011010001000100010001010101010101010000000000000000000000000000000010001000100010001001100110011001101010101010101010111011101110111100110011001100110111011101110111101110111011101111111111111111 )#
b100010001000100100010001000100011001100110011010001000100010001010101010101010000000000000000000000000000000010001000100010001001100110011001101010101010101010111011101110111100110011001100110111011101110111101110111011101111111111111111 2#
b100010001000100100010001000100011001100110011010001000100010001010101010101010000000000000000000000000000000010001000100010001001100110011001101010101010101010111011101110111100110011001100110111011101110111101110111011101111111111111111 /#
b10100 v
b10100 8"
b11000 a
b11000 D"
b11000 l"
b11000 b
b11000 k"
b1110 W
b10001000100010001001100110011001 P
b10001000100010001001100110011001 _"
b10001000100010001001100110011001 d"
b10001000100010001001100110011001 j"
b10001000100010001001100110011001 o"
b10000 &#
b10100 \
b10100 6"
b10100 >"
b1110000000010011110000011 `
b1110000000010011110000011 Q"
b1110000000010011110000011 T"
b100000 Y
b100000 V"
b100000 Z"
b1011 3"
b1011 J"
b1011 e"
b1100 0"
b1100 m"
b10001000100010001001100110011001 1"
b10001000100010001001100110011001 n"
b1100 }
b1100 G"
b10000 y
b10000 ["
b10000 `"
b10000 t"
b10100 $"
b10100 ="
b1101 ("
b1101 M"
b1001000 i
b1001000 B"
b1001000 Y"
b11000 o
b11000 C"
b11000 S"
b1100000000010011100000011 p
b1100000000010011100000011 R"
b100000 Z
b100000 @"
b100000 X"
b11100 X
b11100 A"
b11100 P"
b11100 U"
b11100 W"
b10100 K
1D
#1000
0D
#1025
b1000100010001000101010101010101 n
b1000100010001000101010101010101 v"
b1000100010001000101010101010101 +#
b100010001000100100010001000100011001100110011000000000000000000000000000000000110011001100110011101110111011110001000100010001001100110011001101010101010101010111011101110111100110011001100110111011101110111101110111011101111111111111111 )#
b100010001000100100010001000100011001100110011000000000000000000000000000000000110011001100110011101110111011110001000100010001001100110011001101010101010101010111011101110111100110011001100110111011101110111101110111011101111111111111111 2#
b11100 a
b11100 D"
b11100 l"
b11100 b
b11100 k"
b1111 W
b11000 v
b11000 8"
b100010001000100100010001000100011001100110011000000000000000000000000000000000110011001100110011101110111011110001000100010001001100110011001101010101010101010111011101110111100110011001100110111011101110111101110111011101111111111111111 /#
b11000 \
b11000 6"
b11000 >"
b10100 &#
b1100110011001100111011101110111 P
b1100110011001100111011101110111 _"
b1100110011001100111011101110111 d"
b1100110011001100111011101110111 j"
b1100110011001100111011101110111 o"
b10000000000010100000000011 `
b10000000000010100000000011 Q"
b10000000000010100000000011 T"
b100100 Y
b100100 V"
b100100 Z"
b1010100 i
b1010100 B"
b1010100 Y"
b11100 o
b11100 C"
b11100 S"
b1110000000010011110000011 p
b1110000000010011110000011 R"
b11000 $"
b11000 ="
b1110 ("
b1110 M"
b1101 }
b1101 G"
b10100 y
b10100 ["
b10100 `"
b10100 t"
b1100 3"
b1100 J"
b1100 e"
b10000 0"
b10000 m"
b1100110011001100111011101110111 1"
b1100110011001100111011101110111 n"
b100100 Z
b100100 @"
b100100 X"
b100000 X
b100000 A"
b100000 P"
b100000 U"
b100000 W"
b10101 K
1D
#1050
0D
